<?xml version="1.0" encoding="UTF-8"?>
<testng-results skipped="0" failed="0" ignored="0" total="5" passed="5">
  <reporter-output>
  </reporter-output>
  <suite name="Surefire suite" duration-ms="492" started-at="2019-05-14T16:47:20Z" finished-at="2019-05-14T16:47:20Z">
    <groups>
    </groups>
    <test name="Surefire test" duration-ms="492" started-at="2019-05-14T16:47:20Z" finished-at="2019-05-14T16:47:20Z">
      <class name="ittdb.ITTDBTest">
        <test-method status="PASS" signature="testDeclareEmployee()[pri:0, instance:ittdb.ITTDBTest@2133c8f8]" name="testDeclareEmployee" is-config="true" duration-ms="22" started-at="2019-05-14T16:47:20Z" finished-at="2019-05-14T16:47:20Z">
          <reporter-output>
          </reporter-output>
        </test-method> <!-- testDeclareEmployee -->
        <test-method status="PASS" signature="testDeclareStudent()[pri:0, instance:ittdb.ITTDBTest@2133c8f8]" name="testDeclareStudent" is-config="true" duration-ms="2" started-at="2019-05-14T16:47:20Z" finished-at="2019-05-14T16:47:20Z">
          <reporter-output>
          </reporter-output>
        </test-method> <!-- testDeclareStudent -->
        <test-method status="PASS" signature="testsaveStudent()[pri:1, instance:ittdb.ITTDBTest@2133c8f8]" name="testsaveStudent" duration-ms="413" started-at="2019-05-14T16:47:20Z" finished-at="2019-05-14T16:47:20Z">
          <reporter-output>
          </reporter-output>
        </test-method> <!-- testsaveStudent -->
        <test-method status="PASS" signature="testsaveEmployee()[pri:2, instance:ittdb.ITTDBTest@2133c8f8]" name="testsaveEmployee" duration-ms="8" started-at="2019-05-14T16:47:20Z" finished-at="2019-05-14T16:47:20Z">
          <reporter-output>
          </reporter-output>
        </test-method> <!-- testsaveEmployee -->
        <test-method status="PASS" signature="testUpdate()[pri:3, instance:ittdb.ITTDBTest@2133c8f8]" name="testUpdate" duration-ms="3" started-at="2019-05-14T16:47:20Z" finished-at="2019-05-14T16:47:20Z">
          <reporter-output>
          </reporter-output>
        </test-method> <!-- testUpdate -->
        <test-method status="PASS" signature="testsearch()[pri:4, instance:ittdb.ITTDBTest@2133c8f8]" name="testsearch" duration-ms="2" started-at="2019-05-14T16:47:20Z" finished-at="2019-05-14T16:47:20Z">
          <reporter-output>
          </reporter-output>
        </test-method> <!-- testsearch -->
        <test-method status="PASS" signature="TestDelete()[pri:5, instance:ittdb.ITTDBTest@2133c8f8]" name="TestDelete" duration-ms="1" started-at="2019-05-14T16:47:20Z" finished-at="2019-05-14T16:47:20Z">
          <reporter-output>
          </reporter-output>
        </test-method> <!-- TestDelete -->
      </class> <!-- ittdb.ITTDBTest -->
    </test> <!-- Surefire test -->
  </suite> <!-- Surefire suite -->
</testng-results>
